%YAML 1.1
%TAG !u! tag:unity3d.com,2011:
--- !u!1045 &1
EditorBuildSettings:
  m_ObjectHideFlags: 0
  serializedVersion: 2
  m_Scenes:
  - enabled: 1
    path: Assets/Scenes/MainMenu.unity
    guid: 7ffdbdbc79f7ddb49901a83eefc2f19d
  - enabled: 1
    path: Assets/Scenes/B&WLvl.unity
    guid: 7a5f449e79a3caf44adacc237f723df6
  - enabled: 1
    path: Assets/Scenes/RedLvl.unity
    guid: c00dce0e58805704fa56e4a68f0096af
  - enabled: 1
    path: Assets/Scenes/GreenLvl.unity
    guid: 4753baa59534ae0479466795dd734e04
  - enabled: 1
    path: Assets/Scenes/BlueLvl.unity
    guid: 1de849ba720358446a1b01214f382875
  - enabled: 1
    path: Assets/Scenes/FinalResult.unity
    guid: 599923489c678054a856fa6efea8950a
  m_configObjects: {}
